{
	"info": {
		"_postman_id": "c94d8144-2ab2-4335-bbfc-c943c5a47725",
		"name": "TestBankINA",
		"schema": "https://schema.getpostman.com/json/collection/v2.0.0/collection.json",
		"_exporter_id": "30917360"
	},
	"item": [
		{
			"name": "Auth",
			"item": [
				{
					"name": "Login",
					"event": [
						{
							"listen": "test",
							"script": {
								"exec": [
									"// Test Script\r",
									"pm.test(\"Extract Token from Response\", function () {\r",
									"    var jsonData = pm.response.json();\r",
									"\r",
									"    // Check if the status code is 200\r",
									"    pm.expect(pm.response.code).to.equal(200);\r",
									"\r",
									"    // Check if the token exists in the response\r",
									"    pm.expect(jsonData).to.have.property('token');\r",
									"\r",
									"    // Check if the token is a non-empty string\r",
									"    pm.expect(jsonData.token).to.be.a('string').and.to.not.be.empty;\r",
									"\r",
									"    // Set the token in environment variable\r",
									"    pm.environment.set(\"token\", jsonData.token);\r",
									"\r",
									"    // Set the token in collection variable\r",
									"    pm.collectionVariables.set(\"token\", jsonData.token);\r",
									"});\r",
									""
								],
								"type": "text/javascript"
							}
						}
					],
					"request": {
						"auth": {
							"type": "noauth"
						},
						"method": "POST",
						"header": [],
						"body": {
							"mode": "formdata",
							"formdata": [
								{
									"key": "email",
									"value": "dhani1@gmail.com",
									"description": "dhani1@gmail.com",
									"type": "text"
								},
								{
									"key": "password",
									"value": "12345678",
									"description": "12345678",
									"type": "text"
								}
							]
						},
						"url": "{{base_url}}/login"
					},
					"response": []
				}
			]
		},
		{
			"name": "Registration",
			"item": [
				{
					"name": "Register",
					"request": {
						"method": "POST",
						"header": [],
						"body": {
							"mode": "raw",
							"raw": "{\r\n    \"name\" : \"Dhani1\",\r\n    \"email\" : \"dhani1@gmail.com\",\r\n    \"password\" : \"12345678\"\r\n}",
							"options": {
								"raw": {
									"language": "json"
								}
							}
						},
						"url": "{{base_url}}/register"
					},
					"response": []
				}
			]
		},
		{
			"name": "User",
			"item": [
				{
					"name": "Users",
					"protocolProfileBehavior": {
						"disabledSystemHeaders": {
							"accept": true
						}
					},
					"request": {
						"auth": {
							"type": "bearer",
							"bearer": {
								"token": ""
							}
						},
						"method": "GET",
						"header": [
							{
								"key": "Accept",
								"value": "application/json",
								"type": "text"
							}
						],
						"url": "{{base_url}}/users"
					},
					"response": []
				},
				{
					"name": "/users/:id",
					"request": {
						"method": "GET",
						"header": [],
						"url": "{{base_url}}/users/1"
					},
					"response": []
				},
				{
					"name": "/users/:id",
					"request": {
						"method": "PUT",
						"header": [],
						"body": {
							"mode": "raw",
							"raw": "{\r\n    \"name\":\"Apa aja boleh\"\r\n}",
							"options": {
								"raw": {
									"language": "json"
								}
							}
						},
						"url": "{{base_url}}/users/3"
					},
					"response": []
				},
				{
					"name": "/users/:id",
					"request": {
						"method": "DELETE",
						"header": [],
						"body": {
							"mode": "raw",
							"raw": "",
							"options": {
								"raw": {
									"language": "json"
								}
							}
						},
						"url": "{{base_url}}/users/3"
					},
					"response": []
				}
			],
			"auth": {
				"type": "bearer",
				"bearer": {
					"token": "{{token}}"
				}
			},
			"event": [
				{
					"listen": "prerequest",
					"script": {
						"type": "text/javascript",
						"exec": [
							""
						]
					}
				},
				{
					"listen": "test",
					"script": {
						"type": "text/javascript",
						"exec": [
							""
						]
					}
				}
			]
		},
		{
			"name": "Task",
			"item": [
				{
					"name": "Add",
					"request": {
						"method": "POST",
						"header": [],
						"body": {
							"mode": "raw",
							"raw": "{\r\n    \"user_id\" : 2,\r\n    \"title\" : \"kerja bakti\",\r\n    \"description\" : \"kerja bareng bupati\",\r\n    \"status\" : \"pending\"\r\n}",
							"options": {
								"raw": {
									"language": "json"
								}
							}
						},
						"url": "{{base_url}}/tasks"
					},
					"response": []
				},
				{
					"name": "/tasks/:id",
					"request": {
						"method": "GET",
						"header": [],
						"url": "{{base_url}}/tasks/2"
					},
					"response": []
				},
				{
					"name": "Tasks",
					"protocolProfileBehavior": {
						"disabledSystemHeaders": {
							"accept": true
						}
					},
					"request": {
						"method": "GET",
						"header": [
							{
								"key": "Accept",
								"value": "application/json",
								"type": "text"
							}
						],
						"url": "{{base_url}}/tasks"
					},
					"response": []
				},
				{
					"name": "/tasks/:id",
					"request": {
						"method": "PUT",
						"header": [],
						"body": {
							"mode": "raw",
							"raw": "{\r\n    \"status\":\"Success\"\r\n}",
							"options": {
								"raw": {
									"language": "json"
								}
							}
						},
						"url": "{{base_url}}/tasks/2"
					},
					"response": []
				},
				{
					"name": "/tasks/:id",
					"request": {
						"method": "DELETE",
						"header": [],
						"body": {
							"mode": "raw",
							"raw": "",
							"options": {
								"raw": {
									"language": "json"
								}
							}
						},
						"url": "{{base_url}}/tasks/1"
					},
					"response": []
				}
			],
			"auth": {
				"type": "bearer",
				"bearer": {
					"token": "{{access_token}}"
				}
			},
			"event": [
				{
					"listen": "prerequest",
					"script": {
						"type": "text/javascript",
						"exec": [
							""
						]
					}
				},
				{
					"listen": "test",
					"script": {
						"type": "text/javascript",
						"exec": [
							""
						]
					}
				}
			]
		},
		{
			"name": "Wellcome",
			"request": {
				"method": "GET",
				"header": [],
				"url": "localhost:9990/"
			},
			"response": []
		}
	],
	"event": [
		{
			"listen": "prerequest",
			"script": {
				"type": "text/javascript",
				"exec": [
					""
				]
			}
		},
		{
			"listen": "test",
			"script": {
				"type": "text/javascript",
				"exec": [
					""
				]
			}
		}
	],
	"variable": [
		{
			"key": "base_url",
			"value": "http://localhost:9990",
			"type": "string"
		},
		{
			"key": "token",
			"value": "",
			"type": "string"
		},
		{
			"key": "access_token",
			"value": "ya29.a0AfB_byDKcnQ-axqZR-o-LPU593uGER2-pH8lq_QYuHkp_XnnN3b8ayaJ64hjuQvWJ1qNYYFMbZvGQ34Ek8xG9womzeiOG3-xxGeVr5zWqbVme0s89duy0kfdLYhgTve9SzJuo0qZgh-S5qLAbdjSCfj8kM5zL-zo5c89aCgYKAe8SARMSFQHGX2MiPgP-DT1s05AirM7mFxD4_w0171",
			"type": "string"
		}
	]
}